{
  "$schema": "https://docs.renovatebot.com/renovate-schema.json",
  "reviewers": ["andrewn", "cmiskell", "ccasella", "kwilczynski-gitlab", "marin", "mhuseinbasic", "o-lluch", "sbreitrainer"],
  "packageRules": [
    {
      "matchPackageNames": [
        "golang/go",
        "description: don't upgrade go until golang-ci supports 1.18: https://github.com/golangci/golangci-lint/issues/2649"
      ],
      "allowedVersions": "<1.18"
    },
    {
      "matchPackageNames": [
        "golangci/golangci-lint",
        "description: golangci doesn't work on M1 macs at present: https://github.com/golangci/golangci-lint/issues/2374 "
      ],
      "allowedVersions": "<1.43"
    },
    {
      "matchPackageNames": [
        "kubernetes/kubernetes",
        "description: kubernetes should not exceed one major version ahead of currently running version: https://gitlab.com/gitlab-com/gl-infra/gitlab-dedicated/team/-/issues/670"
      ],
      "allowedVersions": "< 1.23.0"
    },
    {
      "matchPackageNames": [
        "python/cpython",
        "description: avoid alpha and beta versions of python"
      ],
      "allowedVersions": "!/[ab]/"
    }
  ]
}
